{
    "errorCode": 0,
    "msg": null,
    "data": {
        "rows": [
            {
                "id": "1",
                "categoryFirstId": "1",
                "categorySecondId": "1",
                "categoryThirdId": "1",
                "title": "【十三月上新！！！】全是假的，不要买！求你了。 我快亏死了",
                "coverImg": "http://img0.imgtn.bdimg.com/it/u=1003510977,37135527&fm=26&gp=0.jpg",
                "introduce": "1",
                "descibe": "1",
                "price": 250,
                "marketPrice": 998,
                "salesVolume": 11,
                "shamPv": 1,
                "pv": 1,
                "shamSalesVolume": 1,
                "distributionMode": "快递",
                "distributionPrice": 21312,
                "commentCount": 1,
                "amount": 1,
                "supplierId": "1",
                "supplierName": "1",
                "supplierImg": "1",
                "sort": 1,
                "createTime": 1557278979000,
                "updateTime": 1557887225000,
                "isDelete": 0,
                "isShow": 1,
                "recommend": 1,
                "discount": 1,
                "discountEndTime": 1557883897000,
                "vipDiscount": 1,
                "commodityEvaluation": 1,
                "logisticsEvaluation": 1,
                "serviceEvaluation": 1
            },
            {
                "id": "0aee742feb2d4c0080754e874024f8fe",
                "categoryFirstId": "cb7591a0341e4c35b62a31c2936ea5c5",
                "categorySecondId": "cb7591a0341e4c35b62a31c2936ea5c5",
                "categoryThirdId": "cb7591a0341e4c35b62a31c2936ea5c5",
                "title": "【十三月上新】全是假的，不要买！求你了。 我快亏死了",
                "coverImg": "http://img0.imgtn.bdimg.com/it/u=1003510977,37135527&fm=26&gp=0.jpg",
                "introduce": null,
                "descibe": null,
                "price": 250,
                "marketPrice": 998,
                "salesVolume": 0,
                "shamPv": 0,
                "pv": 0,
                "shamSalesVolume": 0,
                "distributionMode": "快递",
                "distributionPrice": 0,
                "commentCount": 0,
                "amount": 123,
                "supplierId": "111",
                "supplierName": "3333",
                "supplierImg": "2321",
                "sort": 999,
                "createTime": 1557895779000,
                "updateTime": null,
                "isDelete": 0,
                "isShow": 1,
                "recommend": 0,
                "discount": null,
                "discountEndTime": null,
                "vipDiscount": null,
                "commodityEvaluation": null,
                "logisticsEvaluation": null,
                "serviceEvaluation": null
            },
            {
                "id": "46223d753f15430dbe2d64850ac4e5ef",
                "categoryFirstId": "02d6013796b64da1a52302d061dbe2f4",
                "categorySecondId": "02d6013796b64da1a52302d061dbe2f4",
                "categoryThirdId": "02d6013796b64da1a52302d061dbe2f4",
                "title": "【十三月上新！！！】全是假的，不要买！求你了。 我快亏死了",
                "coverImg": "http://img0.imgtn.bdimg.com/it/u=1003510977,37135527&fm=26&gp=0.jpg",
                "introduce": null,
                "descibe": null,
                "price": 250,
                "marketPrice": 998,
                "salesVolume": 0,
                "shamPv": 0,
                "pv": 0,
                "shamSalesVolume": 0,
                "distributionMode": "快递",
                "distributionPrice": 0,
                "commentCount": 0,
                "amount": 123,
                "supplierId": "111",
                "supplierName": "3333",
                "supplierImg": "2321",
                "sort": 999,
                "createTime": 1557739306000,
                "updateTime": 1557754939000,
                "isDelete": 0,
                "isShow": 1,
                "recommend": 0,
                "discount": null,
                "discountEndTime": null,
                "vipDiscount": null,
                "commodityEvaluation": null,
                "logisticsEvaluation": null,
                "serviceEvaluation": null
            },
            {
                "id": "47d1cfc037d54c27ba464ae1ffb58461",
                "categoryFirstId": "02d6013796b64da1a52302d061dbe2f4",
                "categorySecondId": "02d6013796b64da1a52302d061dbe2f4",
                "categoryThirdId": "02d6013796b64da1a52302d061dbe2f4",
                "title": "【十三月上新！！！】全是假的，不要买！求你了。 我快亏死了",
                "coverImg": "http://img0.imgtn.bdimg.com/it/u=1003510977,37135527&fm=26&gp=0.jpg",
                "introduce": null,
                "descibe": null,
                "price": 250,
                "marketPrice": 998,
                "salesVolume": 0,
                "shamPv": 0,
                "pv": 0,
                "shamSalesVolume": 0,
                "distributionMode": "快递",
                "distributionPrice": 21,
                "commentCount": 0,
                "amount": 2,
                "supplierId": "111",
                "supplierName": "1",
                "supplierImg": "1",
                "sort": 999,
                "createTime": 1557476634000,
                "updateTime": null,
                "isDelete": 0,
                "isShow": 1,
                "recommend": 0,
                "discount": null,
                "discountEndTime": null,
                "vipDiscount": null,
                "commodityEvaluation": null,
                "logisticsEvaluation": null,
                "serviceEvaluation": null
            },
            {
                "id": "5a1c908622ad4aa08dc064442513de04",
                "categoryFirstId": "02d6013796b64da1a52302d061dbe2f4",
                "categorySecondId": "02d6013796b64da1a52302d061dbe2f4",
                "categoryThirdId": "02d6013796b64da1a52302d061dbe2f4",
                "title": "【十三月上新！！！】全是假的，不要买！求你了。 我快亏死了",
                "coverImg": "http://img0.imgtn.bdimg.com/it/u=1003510977,37135527&fm=26&gp=0.jpg",
                "introduce": null,
                "descibe": null,
                "price": 250,
                "marketPrice": 998,
                "salesVolume": 0,
                "shamPv": 0,
                "pv": 0,
                "shamSalesVolume": 0,
                "distributionMode": "快递",
                "distributionPrice": 0,
                "commentCount": 0,
                "amount": 12,
                "supplierId": "111",
                "supplierName": "3333",
                "supplierImg": "2321",
                "sort": 999,
                "createTime": 1557736890000,
                "updateTime": 1557739257000,
                "isDelete": 0,
                "isShow": 1,
                "recommend": 0,
                "discount": null,
                "discountEndTime": null,
                "vipDiscount": null,
                "commodityEvaluation": null,
                "logisticsEvaluation": null,
                "serviceEvaluation": null
            },
            {
                "id": "5d38af04a48c496d87c55042d98d04b6",
                "categoryFirstId": "02d6013796b64da1a52302d061dbe2f4",
                "categorySecondId": "02d6013796b64da1a52302d061dbe2f4",
                "categoryThirdId": "02d6013796b64da1a52302d061dbe2f4",
                "title": "【十三月上新！！！】全是假的，不要买！求你了。 我快亏死了",
                "coverImg": "http://img0.imgtn.bdimg.com/it/u=1003510977,37135527&fm=26&gp=0.jpg",
                "introduce": null,
                "descibe": null,
                "price": 250,
                "marketPrice": 998,
                "salesVolume": 0,
                "shamPv": 0,
                "pv": 0,
                "shamSalesVolume": 0,
                "distributionMode": "快递",
                "distributionPrice": 0,
                "commentCount": 0,
                "amount": 123,
                "supplierId": "111",
                "supplierName": "3333",
                "supplierImg": "2321",
                "sort": 999,
                "createTime": 1557889664000,
                "updateTime": null,
                "isDelete": 0,
                "isShow": 1,
                "recommend": 0,
                "discount": null,
                "discountEndTime": null,
                "vipDiscount": null,
                "commodityEvaluation": null,
                "logisticsEvaluation": null,
                "serviceEvaluation": null
            },
            {
                "id": "bbecf14660bc4e11bce59386fdee8c95",
                "categoryFirstId": "914ec3fe13e74792866684ba3442eef8",
                "categorySecondId": "914ec3fe13e74792866684ba3442eef8",
                "categoryThirdId": "914ec3fe13e74792866684ba3442eef8",
                "title": "【十三月上新！！！】全是假的，不要买！求你了。 我快亏死了",
                "coverImg": "http://img0.imgtn.bdimg.com/it/u=1003510977,37135527&fm=26&gp=0.jpg",
                "introduce": "123",
                "descibe": "123",
                "price": 250,
                "marketPrice": 998,
                "salesVolume": 0,
                "shamPv": 0,
                "pv": 0,
                "shamSalesVolume": 0,
                "distributionMode": "快递",
                "distributionPrice": 123,
                "commentCount": 0,
                "amount": 2,
                "supplierId": "111",
                "supplierName": "3333",
                "supplierImg": "2321",
                "sort": 999,
                "createTime": 1557883906000,
                "updateTime": null,
                "isDelete": 0,
                "isShow": 1,
                "recommend": 0,
                "discount": null,
                "discountEndTime": null,
                "vipDiscount": null,
                "commodityEvaluation": null,
                "logisticsEvaluation": null,
                "serviceEvaluation": null
            },
            {
                "id": "cf3a4bd97cf94262b57d4e66ea3e8364",
                "categoryFirstId": "02d6013796b64da1a52302d061dbe2f4",
                "categorySecondId": "02d6013796b64da1a52302d061dbe2f4",
                "categoryThirdId": "02d6013796b64da1a52302d061dbe2f4",
                "title": "【十三月上新！！！】全是假的，不要买！求你了。 我快亏死了",
                "coverImg": "http://img0.imgtn.bdimg.com/it/u=1003510977,37135527&fm=26&gp=0.jpg",
                "introduce": null,
                "descibe": null,
                "price": 250,
                "marketPrice": 998,
                "salesVolume": 0,
                "shamPv": 0,
                "pv": 0,
                "shamSalesVolume": 0,
                "distributionMode": "1",
                "distributionPrice": 0,
                "commentCount": 0,
                "amount": 12,
                "supplierId": "111",
                "supplierName": "3333",
                "supplierImg": "2321",
                "sort": 999,
                "createTime": 1557902483000,
                "updateTime": 1557902529000,
                "isDelete": 0,
                "isShow": 1,
                "recommend": 0,
                "discount": null,
                "discountEndTime": null,
                "vipDiscount": null,
                "commodityEvaluation": null,
                "logisticsEvaluation": null,
                "serviceEvaluation": null
            },
            {
                "id": "cf4df49054294e65874d5f42b296d1fe",
                "categoryFirstId": "914ec3fe13e74792866684ba3442eef8",
                "categorySecondId": "914ec3fe13e74792866684ba3442eef8",
                "categoryThirdId": "914ec3fe13e74792866684ba3442eef8",
                "title": "【十三月上新！！！】全是假的，不要买！求你了。 我快亏死了",
                "coverImg": "http://img0.imgtn.bdimg.com/it/u=1003510977,37135527&fm=26&gp=0.jpg",
                "introduce": null,
                "descibe": null,
                "price": 250,
                "marketPrice": 998,
                "salesVolume": 0,
                "shamPv": 0,
                "pv": 0,
                "shamSalesVolume": 0,
                "distributionMode": "快递",
                "distributionPrice": 0,
                "commentCount": 0,
                "amount": 2,
                "supplierId": "111",
                "supplierName": "3333",
                "supplierImg": "2321",
                "sort": 999,
                "createTime": 1557883610000,
                "updateTime": null,
                "isDelete": 0,
                "isShow": 1,
                "recommend": 0,
                "discount": null,
                "discountEndTime": null,
                "vipDiscount": null,
                "commodityEvaluation": null,
                "logisticsEvaluation": null,
                "serviceEvaluation": null
            },
            {
                "id": "e60f95505a7947b397008cee5afa5843",
                "categoryFirstId": "02d6013796b64da1a52302d061dbe2f4",
                "categorySecondId": "02d6013796b64da1a52302d061dbe2f4",
                "categoryThirdId": "02d6013796b64da1a52302d061dbe2f4",
                "title": "【十三月上新！！！】全是假的，不要买！求你了。 我快亏死了",
                "coverImg": "http://img0.imgtn.bdimg.com/it/u=1003510977,37135527&fm=26&gp=0.jpg",
                "introduce": "1",
                "descibe": "1",
                "price": 250,
                "marketPrice": 998,
                "salesVolume": 0,
                "shamPv": 0,
                "pv": 0,
                "shamSalesVolume": 0,
                "distributionMode": "快递",
                "distributionPrice": 21,
                "commentCount": 0,
                "amount": 1,
                "supplierId": "111",
                "supplierName": "1",
                "supplierImg": "1",
                "sort": 999,
                "createTime": 1557460254000,
                "updateTime": null,
                "isDelete": 0,
                "isShow": 1,
                "recommend": 0,
                "discount": null,
                "discountEndTime": null,
                "vipDiscount": null,
                "commodityEvaluation": null,
                "logisticsEvaluation": null,
                "serviceEvaluation": null
            }
        ],
        "page": 1,
        "totalPage": 2,
        "totalCount": 12
    }
}